Gene Dosage Effects of Chromosome 12 Trisomy in Human Induced Pluripotent Stem Cells (iPSCs) – Fahmida
…
# Prep and apply the recipe
rna_pca_prep <- prep(rna_pca_recipe, training = expr_long)
rna_pca_bake <- bake(rna_pca_prep, new_data = NULL)

# View variable contributions to each PC
rna_pca_prep %>%
  tidy(id = "pca", type = "coef")

# A tibble: 77,496 × 4
   terms              value component id   
   <chr>              <dbl> <chr>     <chr>
 1 HDAC2-AS2        0.00891 PC1       pca  
 2 LINC00458        0.00888 PC1       pca  
 3 ENSG00000254339  0.00934 PC1       pca  
 4 CEBPZOS         -0.00858 PC1       pca  
 5 LINC02188        0.00891 PC1       pca  
 6 WNT5B            0.00892 PC1       pca  
 7 LINC00707        0.00868 PC1       pca  
 8 ARRB1            0.00862 PC1       pca  
 9 SLCO1A2          0.00948 PC1       pca  
10 ENSG00000286279  0.00873 PC1       pca  
# ℹ 77,486 more rows

# View variance explained by each PC
rna_pca_prep %>%
  tidy(id = "pca", type = "variance")

# A tibble: 24 × 4
   terms                  value component id   
   <chr>                  <dbl>     <int> <chr>
 1 variance            7.12e+ 3         1 pca  
 2 variance            3.33e+ 3         2 pca  
 3 variance            9.79e+ 2         3 pca  
 4 variance            7.70e+ 2         4 pca  
 5 variance            7.18e+ 2         5 pca  
 6 variance            5.53e-27         6 pca  
 7 cumulative variance 7.12e+ 3         1 pca  
 8 cumulative variance 1.04e+ 4         2 pca  
 9 cumulative variance 1.14e+ 4         3 pca  
10 cumulative variance 1.22e+ 4         4 pca  
# ℹ 14 more rows
…
